<?xml version="1.0" encoding="UTF-8"?>
<svg width="1065px" height="388px" viewBox="0 0 1065 388" version="1.1" xmlns="http://www.w3.org/2000/svg" xmlns:xlink="http://www.w3.org/1999/xlink">
    <!-- Generator: Sketch 43.2 (39069) - http://www.bohemiancoding.com/sketch -->
    <title>map</title>
    <desc>Created with Sketch.</desc>
    <defs></defs>
    <g id="Page-1" stroke="none" stroke-width="1" fill="none" fill-rule="evenodd">
        <g id="wp" transform="translate(-61.000000, -736.000000)" fill="#E6E6E6">
            <g id="map" transform="translate(61.000000, 736.000000)">
                <path d="M3.75523206,5.2344452 L0,1.36561135 L0.568964898,1.13686838e-13 L3.86899317,3.07234672 L6.03093232,2.50338182 L8.53431414,0.682885341 L18.092797,2.84482449 L19.5720101,6.03093232 L30.0407412,11.037696 L32.544123,10.6964126 L34.592301,11.9481035 L35.9579124,9.89976617 L45.9714397,9.33080127 L48.4748215,12.6308295 L57.9193839,9.78600505 L68.6151592,22.6443568 L66.112096,25.9442258 L67.0218663,26.9679165 L70.5494168,26.513828 L73.3950379,29.1300149 L73.167197,33.1132472 L71.1198156,33.226371 L72.0295859,35.3884695 L81.7008738,39.2569847 L84.8874597,42.6714114 L86.8217173,45.6301563 L91.0327904,46.4268028 L110.149119,59.0568357 L110.490083,61.5598988 L112.311217,61.7877397 L113.90451,65.3152902 L112.652182,69.6394872 L114.81428,71.0049392 L116.179732,72.1425503 L117.886149,69.6394872 L121.528417,72.1425503 L121.300576,76.9224291 L133.47652,84.0906539 L131.427546,80.9056614 L131.314422,79.6533331 L137.231912,78.4010049 L139.734975,80.2221387 L139.620258,81.246626 L145.196783,85.228265 L144.627977,89.6671791 L146.447518,92.625924 L151.114273,95.0142701 L153.502619,93.7635351 L163.516465,100.362954 L163.516465,106.962374 L172.051735,115.497644 L181.609899,115.156679 L185.478414,120.50377 L175.236727,125.737737 L172.3927,125.283649 L167.955379,125.396773 L165.79328,123.462515 L163.972147,121.415134 L160.900278,121.756098 L162.947659,122.097063 L164.881917,124.146038 L167.840662,126.42126 L172.051735,126.649101 L174.326957,127.217906 L180.698536,125.51149 L190.371417,119.594 L197.539642,123.006833 L196.061066,126.308136 L201.522874,129.607846 L200.613104,130.973298 L195.036578,129.834093 L194.239932,131.883068 L192.533515,132.33875 L192.192551,135.523742 L187.412672,137.459593 L187.525796,139.16601 L189.005965,140.303621 L189.802611,141.896914 L192.192551,143.603331 L192.761356,146.221111 L191.281187,147.471846 L191.736869,149.065139 L195.264419,149.633944 L201.295033,154.641664 L213.357854,156.007116 L215.860917,157.03001 L218.023015,163.175341 L217.111652,168.181467 L219.388467,171.823735 L217.567333,176.147932 L220.070397,177.626507 L221.435849,180.357412 L225.304364,178.195313 L226.784533,181.268775 L224.622434,184.796326 L222.801301,184.796326 L223.370106,191.508869 L225.419081,187.412513 L227.466462,187.412513 L228.49095,188.550124 L229.856402,185.365131 L232.133217,186.615866 L235.31821,185.365131 L238.391672,186.730583 L241.804505,187.640353 L243.966604,187.299389 L244.876374,189.574611 L243.85348,191.849833 L245.332056,193.443126 L247.721995,193.557843 L248.518642,199.132775 L253.070679,200.044139 L254.321414,203.116007 L255.573743,204.937141 L254.436131,207.325487 L250.68074,208.91878 L249.428412,217.45405 L251.59051,219.047343 L248.518642,227.808861 L248.97273,232.701863 L250.566023,233.611634 L251.818351,239.188159 L248.290801,267.179129 L245.67302,267.066005 L243.966604,263.082773 L239.414566,261.376356 L236.342697,257.620965 L235.205086,260.694427 L233.724917,261.035391 L234.293722,264.562942 L230.312083,264.335101 L220.753919,258.417611 L219.614715,260.80755 L223.256982,265.813677 L222.916018,268.659298 L219.27375,269.000263 L197.8822,245.787578 L192.87448,243.966444 L187.525796,238.276795 L182.406546,236.455662 L165.906404,222.5733 L164.881917,215.405076 L150.886432,206.528841 L144.059172,194.239773 L133.47652,182.975192 L133.930609,175.464409 L127.55903,165.906245 L126.64926,162.719659 L122.893869,159.875631 L123.234833,154.299106 L119.935124,149.29298 L116.748538,147.358722 L114.017634,141.441232 L110.717924,139.393851 L107.759179,130.858581 L98.8845379,127.103189 L94.4456238,123.80348 L89.8951793,107.190214 L85.3431414,96.0387574 L84.3186541,94.5601816 L86.1397879,94.5601816 L87.3905228,92.5112069 L80.9058207,87.5050806 L72.1427097,81.5875907 L69.9806112,79.7664569 L61.7882177,78.7435629 L60.6504472,76.1257826 L58.4883488,64.5186438 L54.05055,63.4957497 L51.0919644,56.6668963 L48.1333788,56.0980907 L40.8507556,45.0613508 L32.8855657,44.3778281 L23.3270828,33.226371 L10.35497,22.7581179 L8.87575681,19.7995323 L6.71381766,19.2305674 L6.14469344,13.1997944 L3.98275429,9.44472171 L3.75523206,5.2344452 Z M148.058337,91.1903671 L146.645086,88.1886032 L147.704626,84.8347217 L150.177417,84.8347217 L151.942785,82.3619311 L154.944549,83.0677598 L155.29826,89.6018541 L151.942785,92.4267624 L148.058337,91.1903671 Z M162.225898,97.2464734 C162.225898,97.2464734 161.113779,94.7752761 161.279482,94.7752761 C161.443591,94.7752761 172.434125,97.6989686 172.434125,97.6989686 L170.499868,100.868028 L166.629759,98.8094938 L162.225898,97.2464734 Z M166.959571,100.332682 L170.458442,103.090672 L169.387749,109.841454 L165.766194,106.836503 L166.959571,100.332682 Z M172.105907,111.077849 L172.3927,107.496127 L173.83463,107.948622 L175.810313,108.977889 L180.419709,110.295542 L182.35556,112.929256 L172.105907,112.393909 L172.105907,111.077849 Z M176.262808,108.112731 L177.333501,105.026523 L185.483194,107.207741 L187.294768,110.254117 L185.77158,111.241958 L179.844531,108.442543 L176.262808,108.112731 Z M187.309108,116.013871 L190.282192,115.800369 L190.282192,117.925822 L187.095607,119.093706 L187.309108,116.013871 Z M196.336705,137.045337 L200.586018,138.213221 L200.37411,139.913264 L195.48748,139.275947 L196.336705,137.045337 Z M233.301101,179.001519 L234.045169,176.559001 L239.992931,173.584323 L239.143706,169.229854 L243.604926,168.379035 L244.348994,172.735098 L248.596713,173.053757 L247.640737,168.060377 L253.057933,167.848469 L254.546069,171.035055 L256.988587,174.009733 L257.837812,184.206807 L259.749763,186.861233 L272.072291,191.535955 L267.822978,196.102332 L267.50432,203.750138 L262.724441,200.139736 L252.420616,197.165058 L251.46464,191.217296 L253.057933,188.242618 L249.340781,186.756076 L247.53558,181.657539 L244.879561,180.064246 L240.736999,181.762696 L236.063871,180.064246 L233.301101,179.001519 Z M289.066353,201.626279 L290.022329,196.527741 L292.678348,190.685136 L298.839612,191.429204 L305.106033,197.695625 L299.688837,206.406157 L295.971684,203.644981 L290.873147,205.556932 L289.810421,203.53823 L289.066353,201.626279 Z M214.087582,141.820436 L217.718696,140.333894 L220.113416,142.56291 L217.471736,144.874778 L213.75777,144.462116 L214.087582,141.820436 Z M219.700753,132.57615 L222.011027,134.886425 L220.196267,137.115442 L217.718696,137.032591 L219.700753,132.57615 Z M162.007616,256.134422 L164.152189,253.162931 L170.920497,255.96872 L168.693073,257.53652 L168.774331,259.105914 L164.896256,259.187172 L162.007616,256.134422 Z M117.766652,199.843384 L120.820995,197.61596 L129.157103,207.519869 L125.690098,207.437018 L124.370851,209.17052 L117.766652,199.843384 Z M114.382498,196.376378 L114.631052,190.68195 L118.51072,192.745264 L119.829966,195.799606 L117.602543,197.945772 L114.382498,196.376378 Z M95.1514526,172.688893 L88.0533327,171.863567 L85.8259092,164.352784 L81.3678756,160.72167 L83.5968924,152.962333 L85.4960976,154.036213 L88.631698,153.128036 L95.1514526,163.774419 L96.5551436,170.95539 L95.1514526,172.688893 Z M60.9818522,117.637436 L56.9374374,110.373614 L54.7915906,110.703425 L51.9853238,106.246985 L47.0330507,99.6443793 L55.6169163,96.5900368 L60.4866567,103.935117 L67.0887846,108.805813 L65.3568752,114.004728 L65.850796,119.039534 L60.9818522,117.637436 Z M15.5040146,68.61022 L17.3197312,63.2456027 L34.1573321,75.4597862 L27.9670705,76.5336656 L15.5040146,68.61022 Z M420.248531,329.727029 L421.841824,327.603169 L425.877635,328.026985 L425.347069,330.683004 L420.248531,329.727029 Z M409.837955,279.167065 L413.661858,279.167065 L412.705883,283.309626 L408.351413,282.034992 L409.837955,279.167065 Z M409.732798,297.649262 L409.307389,295.52381 L412.600725,292.018565 L439.579954,291.913408 L440.747838,293.39995 L434.374666,295.949219 L430.869422,297.011945 L428.214996,298.817146 L425.984386,299.879872 L417.273853,299.666371 L412.175316,297.86117 L409.732798,297.649262 Z M445.422559,295.311902 L446.909102,296.479785 L448.821053,299.135805 L445.527717,298.923897 L443.934424,296.798444 L445.422559,295.311902 Z M465.921866,294.462677 L464.223416,291.276091 L465.921866,289.469297 L478.244393,293.39995 L477.607076,295.842468 L469.95927,294.567834 L465.921866,294.462677 Z M446.692414,327.305223 L446.165034,329.938936 L447.865077,332.701706 L445.209058,333.232273 L435.544143,330.683004 L429.808289,328.664302 L426.833611,326.540443 L416.424628,323.460608 L405.695394,328.345644 L387.213196,323.565765 L382.433317,324.521741 L373.617628,324.309833 L366.18173,322.504632 L356.516815,319.318046 L336.971891,311.456739 L327.9427,310.926172 L320.082986,309.758288 L312.43518,310.714264 L310.31132,312.731373 L297.351476,311.775397 L294.802207,309.544787 L292.147781,309.332879 L285.879767,305.615727 L262.936349,303.171616 L260.600582,299.666371 L263.999075,296.905195 L265.38046,294.567834 L261.024398,293.506701 L254.864727,290.743931 L248.278054,290.532023 L243.498176,291.699907 L240.846936,291.255378 L240.869242,290.839528 L239.707732,290.670639 L237.338505,291.487999 L235.254478,291.32389 L235.17322,288.505354 L232.598459,285.890761 L234.64106,283.725476 L237.706556,286.298644 L239.420939,286.504178 L240.32115,289.118772 L240.942534,289.419904 L241.039725,287.520699 L244.517883,284.944345 C244.517883,284.944345 245.032517,282.047738 245.226898,282.11147 C245.419687,282.175202 248.896252,283.14233 248.896252,283.14233 L249.476211,274.125886 L255.078228,268.781981 C255.078228,268.781981 256.045357,270.520264 256.238146,270.520264 C256.430934,270.520264 260.745571,269.61846 260.745571,269.61846 L264.738363,271.87297 L269.889479,272.065758 L271.242185,272.838505 L273.689483,273.289407 L276.136781,273.225675 L276.780471,269.232883 L287.59893,271.422068 L290.368073,275.994818 L295.197344,276.187607 L301.508377,278.376791 L305.050267,276.509452 L309.493961,278.505848 L309.752075,280.502244 L311.941259,281.338723 L312.519624,288.100658 L317.672334,288.937137 L326.36534,290.740744 L328.490793,291.191646 L335.316459,289.19525 L345.169383,293.058985 L349.48402,292.544352 L350.836726,291.384435 L354.827924,293.509887 L361.655184,286.618896 L362.040761,281.531511 L369.639175,280.307862 L371.057206,285.524303 L376.917337,287.713488 L380.652016,285.395247 L385.288498,287.842545 L391.470475,289.066193 L394.368675,291.127914 L406.796359,291.513491 L407.505375,294.733536 L407.698163,299.562807 L410.660095,300.142766 L410.789151,306.646587 L414.265716,309.351999 L420.705806,311.67024 L436.933495,310.768436 L437.127876,309.093885 L440.54071,308.706715 L441.569977,310.703111 L449.619293,313.601311 L447.173588,318.688695 L447.305831,318.742867 L446.590443,320.379179 L446.692414,327.305223 Z M465.391299,318.573978 L478.349551,325.372559 L477.074916,328.664302 L467.72866,331.532229 L465.921866,335.250975 L464.753982,333.444181 L457.424835,327.496418 L451.051663,327.071009 L447.814092,323.929036 L448.000507,319.028067 L450.521097,320.06052 L460.611421,322.397881 L465.391299,318.573978 Z M471.127154,334.506907 L472.295037,332.594956 L475.376466,333.125522 L476.756258,336.312108 L473.357764,336.630767 L471.127154,334.506907 Z M486.634674,338.542718 L481.961546,337.374834 L479.305526,335.674791 C479.305526,335.674791 480.475003,333.339024 481.217478,333.657682 C481.961546,333.976341 486.422766,335.569634 486.422766,335.569634 L486.529516,331.001663 L485.997356,326.965852 L491.733211,323.460608 L502.037036,323.884423 L500.018334,330.789755 L495.770615,335.99345 L494.919797,338.756219 L491.095894,338.437561 L486.634674,338.542718 Z M521.049801,325.477716 L517.969965,325.477716 L518.076716,322.71654 L516.376672,321.016496 L520.093825,320.804588 L522.961752,320.379179 L522.324435,322.82329 L521.368459,323.460608 L521.049801,325.477716 Z M502.355695,332.913614 L503.523578,328.664302 L506.710164,329.196462 L510.003501,326.328535 L513.083336,327.071009 L516.58858,328.452394 L517.758057,327.496418 L522.856595,330.471096 L525.617771,333.550932 L530.078991,333.125522 L534.009645,333.232273 L535.389437,331.532229 L529.760333,328.345644 L524.661796,324.735242 L524.768546,321.653813 L528.378948,320.274022 L534.328304,321.229997 L535.284279,324.840399 L537.938705,325.903126 L541.869359,323.141949 L545.800013,324.203082 L547.393305,328.771053 L548.454439,323.884423 L553.234317,323.884423 L554.190293,328.026985 L554.403794,332.594956 L550.685049,334.400157 L548.349281,334.506907 L546.330579,335.888292 L542.718584,337.162927 L540.169315,337.162927 L538.894681,334.400157 L534.540212,338.33081 L531.779035,338.118902 L528.273791,339.712195 L524.873703,339.074878 L515.527447,342.154713 L511.915452,341.198737 L510.640818,343.429348 L505.542281,342.79203 L501.930286,341.198737 L503.948988,337.586742 L503.842237,335.356132 L502.355695,332.913614 Z M553.871634,356.813008 L553.552976,352.563696 L557.695537,349.590611 L572.248675,350.014427 L575.435261,347.890568 L581.383023,351.821221 L582.338999,355.750282 L587.649444,355.007807 L596.253226,364.779473 L594.978592,368.603376 L587.544287,370.622078 L581.276273,369.87801 L578.727004,369.666102 L575.540418,362.123453 L566.724728,357.450325 L553.871634,356.813008 Z M570.760539,335.250975 L569.485905,332.064389 L575.965827,326.647193 L580.215139,327.496418 L582.657657,323.884423 L588.500263,323.884423 L592.429323,324.309833 L599.865221,326.647193 L612.292906,331.532229 L617.710101,328.664302 L624.083273,329.196462 L632.368396,332.064389 L636.936367,327.708326 L641.078929,326.221784 C641.078929,326.221784 643.096037,325.477716 643.096037,325.159058 C643.096037,324.840399 643.309539,322.504632 642.884129,322.504632 C642.45872,322.504632 640.441611,323.353857 640.441611,323.353857 L640.441611,321.653813 L641.928154,317.511252 L645.326647,318.36207 L646.496124,319.955363 L646.177466,323.884423 L646.496124,326.328535 L642.777379,327.708326 L641.184086,329.089711 L641.290837,331.850888 L631.731079,335.569634 L626.632542,335.037474 L620.471278,338.22406 L615.904901,337.693493 L609.743637,336.206951 L608.680911,338.33081 L605.494325,338.012152 L600.395787,340.030854 L597.422703,338.33081 L596.359976,336.949425 L587.225628,335.888292 L583.401725,337.586742 L581.594931,337.162927 L581.064365,335.144224 L576.284486,337.056176 L573.204651,335.674791 L570.760539,335.250975 Z M618.877985,322.82329 L621.003438,323.565765 L620.684779,326.221784 L619.303394,326.540443 L617.179535,325.691218 L618.877985,322.82329 Z M647.664008,325.477716 L648.726735,323.247106 L653.399863,323.353857 L653.187955,325.691218 L649.469209,326.221784 L647.664008,325.477716 Z M653.718521,329.40837 L656.055882,326.221784 L655.630473,324.097925 L658.391649,323.353857 L659.242468,325.0539 L661.259577,323.991174 L663.278279,325.903126 L658.391649,329.196462 L655.737223,330.257595 L653.718521,329.40837 Z M678.892549,326.433692 L679.211208,323.991174 L683.884336,322.397881 L682.716452,321.229997 L684.840312,320.167271 L686.433605,321.548656 L695.356045,320.804588 L697.056088,326.328535 L681.22991,327.603169 L678.892549,326.433692 Z M661.047669,362.018296 L662.852869,354.689149 L669.439542,350.014427 L675.599213,350.865246 L677.406007,352.13988 L680.379092,347.783817 L689.301532,340.880079 L691.213483,342.68528 L695.674703,341.517396 L696.949338,345.129391 L692.27621,345.659958 L693.444093,349.165202 L695.462795,350.439836 L692.806776,357.450325 L679.529866,368.496625 L674.324578,367.859308 L667.527591,372.534029 L660.091693,372.852688 L659.242468,368.603376 L664.234254,367.859308 L664.022346,364.672722 L660.835761,363.930247 L661.047669,362.018296 Z M643.414696,387.829641 L641.716246,384.643055 L640.22811,384.005738 L645.22149,381.987036 L651.381161,377.632566 L653.930429,375.932523 L655.418565,378.80045 L652.550638,381.880285 L650.743843,384.854963 L646.496124,385.173622 L643.414696,387.829641 Z M710.651657,317.511252 L712.563608,311.882148 L714.794218,309.970196 L722.655526,310.500763 L727.647312,306.890361 L730.940649,307.846337 L733.171259,310.926172 L727.754063,314.219509 L727.540562,317.406094 L716.494262,315.812802 L711.714383,318.573978 L710.651657,317.511252 Z M747.095046,308.846925 L746.449762,305.808515 L751.052785,305.900926 L751.237607,308.018413 L747.095046,308.846925 Z M759.430319,323.116456 L760.811864,321.551843 L765.782778,323.299685 L764.308982,324.773481 L759.430319,323.116456 Z M778.210463,321.64266 L779.316208,320.814148 L785.115794,322.287944 L783.82682,323.669329 L778.210463,321.64266 Z M774.620933,301.758365 L773.699851,297.708214 L776.553597,295.866368 L778.027234,297.155342 L774.620933,301.758365 Z M799.845787,316.395947 L800.950099,313.449948 L804.263988,314.922151 L802.146502,319.157123 L799.845787,316.395947 Z M831.514077,319.525174 L833.171102,321.459432 L827.371675,325.877633 L826.082542,324.865892 L831.514077,319.525174 Z M836.209511,316.303536 L834.275254,313.91041 L833.631563,308.754514 L837.406074,304.611952 L845.047666,299.548468 L847.901095,303.598618 L847.072582,311.332462 L837.681873,317.409281 L836.209511,316.303536 Z M905.806139,277.639097 L912.896292,284.082373 L906.727062,293.196009 L900.559425,289.881959 L903.044962,283.989962 L905.990961,284.818475 L904.794398,280.860735 L905.806139,277.639097 Z M907.648145,276.257712 L910.318344,272.758841 L917.038854,271.562278 L917.590133,275.429199 L912.803881,279.847401 L907.648145,276.257712 Z M909.489832,268.248228 L908.844548,265.577869 L912.803881,261.895769 L915.381829,262.541053 L916.025679,266.591204 L914.644294,268.70869 L909.489832,268.248228 Z M874.5059,270.273304 L876.808208,266.591204 L876.440157,261.803358 L881.686871,253.335007 L883.068256,254.992031 L878.189593,263.369565 L878.004771,267.234894 L875.611645,271.562278 L874.5059,270.273304 Z M845.507969,233.724758 L845.876019,231.699682 L849.833759,237.776501 L848.822018,239.433526 L845.507969,233.724758 Z M854.161143,253.335007 L855.910578,252.321672 L855.725915,256.924696 L854.344371,259.410233 L854.161143,253.335007 Z M801.225579,238.236963 L804.08076,235.474193 L808.223321,235.566604 L808.591372,239.616755 L805.00009,237.131218 L802.146502,238.973064 L801.225579,238.236963 Z M832.065516,165.703897 L831.040869,163.801505 L832.796678,160.584646 L837.184607,158.535672 L837.184607,150.05298 L850.348552,148.590337 L857.515024,141.277123 L864.974821,138.936576 L874.335417,138.789993 L886.769635,148.73692 L898.470618,147.419267 L902.127226,149.028493 L903.589868,150.930885 L901.102738,153.124849 L904.174607,156.341707 L907.684631,164.532826 L903.589868,169.652076 L903.589868,171.407885 L905.490826,171.261302 L903.589868,180.768481 L905.052671,185.596159 L907.052094,189.624003 L908.645387,191.217296 L910.664089,197.483717 L912.894699,196.8464 L911.938723,190.685136 L914.6999,188.773185 L916.505101,191.110545 L916.718602,195.678516 L920.647662,196.634492 L922.454457,198.546443 L923.410432,200.988961 L922.135798,203.856889 L923.729091,204.706114 L927.764902,207.043474 L936.368683,207.150225 L936.475434,202.263596 L938.811202,201.095712 L938.917952,198.332942 L943.379172,196.315833 L946.672509,192.38518 L952.194862,190.898637 L953.364339,186.330667 L950.920228,183.355989 L951.876203,180.488062 L961.542711,181.657539 L967.066658,179.426928 L973.544987,178.682861 L971.20922,174.64705 L973.121171,170.928304 L991.389868,163.387249 L993.727228,164.131317 L996.807063,167.848469 L998.719015,167.104401 L1009.66016,171.779122 L1016.14008,173.902982 L1018.79451,176.133592 L1022.61841,175.496275 L1028.35426,179.320178 L1031.85951,183.250831 L1039.61406,182.932173 L1047.36862,186.012008 L1055.54699,187.074734 L1060.22012,189.942662 L1064.46943,190.473228 L1064.15077,276.829704 L1060.53878,286.389461 L1065,292.655882 L1064.15077,344.385323 L1061.28285,344.492074 L1046.83646,327.603169 L1042.05658,324.309833 L1038.97675,319.955363 L1031.75435,320.804588 L1027.50504,322.185973 L1023.57438,320.59268 L1019.32667,321.653813 L1015.1841,319.104545 L1016.03333,314.538167 L1018.26394,307.846337 L1014.33329,303.171616 L1011.1467,299.98503 L1010.08557,294.781335 L1010.72288,289.364139 L1014.54679,287.345437 L1005.19894,279.167065 L1002.22426,266.20722 L1007.00414,262.596818 L1004.24296,258.878073 L998.081698,260.684867 L996.169746,255.691487 L988.628691,252.186242 L949.433685,236.466815 L929.251444,232.110752 L924.471565,229.349575 L918.630554,227.756282 L918.523803,224.569696 L914.062583,223.188312 L910.026772,222.976404 L907.264002,223.083154 L905.246893,220.215227 L900.89083,219.364409 L898.129654,216.177823 L895.368477,214.69128 L894.624409,212.35392 C894.624409,212.35392 894.624409,205.980748 895.049818,205.980748 C895.473634,205.980748 898.448312,203.431479 898.448312,203.431479 L896.855019,200.988961 L894.624409,203.644981 L893.668434,208.848675 L891.649731,211.611445 L890.588598,214.903188 L887.188511,218.303275 L888.781804,221.489861 L885.064652,224.462946 L876.991437,226.800307 L873.274284,217.3473 L877.098187,215.859164 L874.123509,212.46067 L874.442168,208.424859 L863.821277,200.032986 L856.385379,199.714327 L856.173471,196.102332 L862.546643,193.871722 L868.494406,193.766565 L871.680991,195.678516 C871.680991,195.678516 882.089974,187.49855 882.408633,187.49855 C882.727291,187.49855 889.419121,190.473228 889.419121,190.473228 L899.404288,186.649325 L898.978879,182.613514 L888.888555,183.462739 L883.471359,182.081354 L878.798231,184.844124 L872.636967,183.993306 L869.980948,184.630623 L868.068996,182.400013 L863.821277,184.525466 L853.942861,175.603025 L855.322653,171.672372 L852.986886,168.273878 L843.639036,165.511108 L840.87786,164.131317 L837.691274,166.255176 L835.035254,165.19245 L832.065516,165.703897 Z M824.307613,154.464808 L826.324722,152.234198 L830.467284,153.402082 L834.079279,155.208876 L832.485986,159.351438 L829.724809,160.731229 L826.643381,158.714121 L826.431473,156.270009 L824.307613,154.464808 Z M1012.10268,304.127591 L1015.92658,309.332879 L1012.73999,318.573978 L1008.27877,321.972472 L1005.19894,324.309833 L999.144424,324.94715 L989.266008,324.94715 L988.628691,322.71654 L992.240686,319.318046 L991.603369,316.555276 L994.257795,312.731373 L996.595155,307.527678 L1005.7295,305.402226 L1012.10268,304.127591 Z M933.137485,149.567026 L930.679035,144.650124 L941.457661,145.217336 L963.959737,160.723263 L961.122241,162.4249 L942.212882,157.130387 L941.64567,152.403087 L933.137485,149.567026 Z M924.627708,155.995963 L919.522798,157.6976 L917.821161,154.294326 L922.736469,153.349503 L924.627708,155.995963 Z M936.163149,168.288218 L968.307833,171.50189 L967.173409,173.770739 L955.82757,177.363614 L947.886598,173.96034 L936.918529,170.745075 L936.163149,168.288218 Z M827.994493,219.671914 L824.272561,220.720301 L808.334852,211.273667 L807.571665,208.600122 L798.123438,207.836934 L798.219035,210.700082 L784.47529,209.269305 L784.570888,205.64297 L780.848956,206.882552 L778.463796,211.17807 L771.687522,211.17807 L766.915609,204.019405 L764.052462,204.973787 L764.052462,207.645739 L763.289434,210.12809 L762.334892,211.750062 L762.43049,213.850022 L760.902522,213.850022 L759.758538,210.986874 L760.521725,208.41052 L759.758538,206.69295 L757.467382,206.214962 L758.708558,204.115002 L760.139335,203.447412 L758.517362,201.921038 L760.806924,200.012273 L763.765669,200.201875 L766.533219,198.866695 L782.662123,198.484305 L786.766446,196.671138 L787.24284,199.534285 L791.919155,199.534285 L796.595629,196.290341 L809.002601,200.871058 L818.163876,200.488667 L821.981565,204.59299 L824.368158,211.654464 L828.853278,212.22805 L827.994493,219.671914 Z M737.903339,204.401795 L741.625271,206.023767 L740.479693,208.028129 L741.053279,209.745699 L742.579653,209.745699 L744.775211,208.600122 L744.297223,217.667552 L740.19306,217.093966 L732.844634,220.911496 L728.931506,219.289524 L723.396407,218.335141 L715.284953,208.219325 L717.671705,205.164982 L721.393638,205.736974 L725.019972,202.87542 L737.903339,204.401795 Z M803.276147,175.293927 L806.043697,172.239584 L817.783079,171.285202 L817.687481,175.485122 L812.628776,179.779046 L803.276147,175.293927 Z M748.114753,168.708847 L749.451526,165.941297 L754.317442,163.936935 L756.799793,163.07815 L766.820171,168.900042 L765.006844,172.143987 L755.558617,171.000002 L752.600032,172.335182 L748.87794,170.71321 L748.114753,168.708847 Z M712.989017,178.789611 L716.81292,178.57611 L715.963695,183.144081 L718.831623,188.242618 L715.431536,189.305344 L713.414427,183.462739 L712.989017,178.789611 Z M700.879991,176.133592 L700.668083,174.11489 L703.110601,172.309689 L707.997231,173.691074 L710.865158,172.735098 L726.903244,173.372415 L726.16077,174.64705 L711.502475,177.089568 L700.879991,176.133592 Z M678.46714,177.196318 L676.661939,172.947006 L680.167184,170.079079 L700.242674,173.053757 L698.861289,175.708183 L683.141861,176.559001 L678.46714,177.196318 Z M749.209345,139.699763 L750.802638,140.86924 L753.246749,140.231923 L754.733292,142.886349 L754.202725,145.435618 L755.263858,147.45432 L750.060164,152.234198 L749.741505,145.967777 L747.616052,144.160983 L746.448169,140.125172 L749.209345,139.699763 Z M768.223703,151.384973 L754.202725,135.557201 L755.47736,130.990824 L756.007926,123.661677 L752.184023,121.005657 L752.184023,115.376553 L752.609432,112.720534 L751.865365,108.789881 L748.148212,105.603295 L751.546706,98.2741474 L750.697481,93.3891113 L761.318371,78.9427245 L764.293049,80.3241094 L758.450444,88.8211405 L764.081141,90.8398426 L762.806507,97.2130143 L762.062439,102.416709 L754.521384,108.366065 L756.857151,113.783261 L760.787805,112.295125 L761.531873,106.55927 L767.905044,105.816796 L767.054226,99.9741909 L777.569959,94.768903 L780.01407,101.674234 L777.995368,107.833905 L768.754269,110.915333 L768.542361,114.951144 L778.102119,118.563139 L777.464802,126.529604 L768.223703,122.068384 L765.355776,119.731023 L761.743781,120.898907 L761.531873,128.865371 L760.257238,132.158708 L762.16919,134.496068 L762.487848,140.443831 L770.454313,150.003588 L768.223703,151.384973 Z M769.284836,85.6345547 L767.798294,75.3307295 L775.339349,70.2321921 L777.995368,73.7374365 L775.4461,82.9785354 L769.284836,85.6345547 Z M636.499805,221.92961 L638.719421,226.319132 L641.818216,227.918798 L644.502915,230.08727 L642.488993,234.580356 L638.048485,233.857001 L631.646635,236.129037 L625.966705,237.214069 L624.519995,239.846189 L625.294176,243.099693 L623.436396,244.959066 L617.549179,243.770469 L612.799573,242.84158 L610.9402,235.200147 L613.057686,229.15838 L613.781041,226.421103 L606.964934,222.342273 L596.637209,211.912578 L602.524427,205.561712 L602.11033,199.003718 L603.40249,197.09336 L601.077876,192.703838 L596.173561,192.084047 L582.695896,199.778059 L582.850446,203.031563 L587.963323,206.387038 L586.827305,211.292787 L585.484159,213.410273 L588.375986,218.056315 L584.451705,224.098082 L586.723741,237.472182 L587.343532,241.24032 L583.831914,245.887956 L584.502691,254.305322 L586.620177,256.317651 L586.774726,259.467591 L582.541347,260.345495 L578.926165,262.359418 L576.294046,260.810737 L574.02201,261.377949 L572.059073,263.806128 L568.134793,263.649985 L561.318845,256.163102 L565.915336,246.042505 L566.637097,237.83386 L568.083807,223.169192 L564.57219,217.643652 L565.966321,214.546291 L563.539736,211.809014 L560.080856,211.085659 L558.170339,212.996017 L553.884381,212.894046 L551.715909,213.668386 L549.443873,209.691527 L551.147104,206.077939 L549.805551,201.068626 L550.476327,199.210847 L548.824083,195.750214 L552.128572,192.652853 L553.884381,192.291175 L557.550548,187.747104 L559.202793,179.433302 L561.525814,176.955731 L560.544345,161.981964 L566.586112,154.080825 L569.065276,150.621786 L570.510392,148.711428 L574.331109,151.138013 L574.382094,149.227655 L571.077605,145.716037 L572.782428,135.906133 L568.289342,133.737661 L568.392906,130.845834 L571.801119,131.103948 L572.317186,133.943196 L574.538237,133.375983 L574.847336,127.799458 L573.091527,121.190479 L577.481049,120.158025 L578.771616,115.097727 L581.612457,114.425358 L582.695896,108.539734 L585.433174,108.643298 L587.549067,113.703596 L592.40383,113.600032 L595.759305,107.042038 L596.637209,99.865847 L603.865979,100.794737 L606.396129,103.014194 L612.076218,102.65411 L613.935591,106.422247 L636.912468,109.314074 L643.728734,111.844223 C643.728734,111.844223 647.445727,109.572187 647.652855,109.572187 C647.85839,109.572187 669.906377,112.153322 669.906377,112.153322 L678.427308,106.629375 L681.319134,103.686563 L684.520219,99.3480268 L688.237212,96.5597642 L689.88627,93.7603485 L694.294912,90.733092 L697.322168,93.9722565 C697.322168,93.9722565 699.127369,99.3368737 698.96804,99.3368737 C698.808711,99.3368737 694.7729,101.036917 694.7729,101.036917 L691.586314,109.003382 L681.760476,117.341084 L677.670494,122.970187 L657.913661,124.617652 L647.930088,121.112408 L614.523516,121.271737 L601.458514,121.909054 L590.995359,120.793749 L585.259505,122.387042 L579.364321,129.821347 L577.399791,138.37255 L581.861011,151.066315 L590.624122,155.580113 L591.739427,162.005864 L593.703957,163.758486 L603.636545,163.865237 L605.760405,159.670096 L614.257436,151.437552 L616.860876,153.668162 L624.349353,153.986821 L628.863152,149.896838 L638.370331,149.313692 L640.812849,149.68493 L646.282623,146.127107 L651.699819,144.320312 L657.649175,147.825557 L654.14393,156.324181 L650.850594,154.995375 L646.601282,152.712186 L640.865427,154.039399 L638.953476,158.87345 L629.18181,168.751866 L620.100041,171.831701 L617.179535,175.867512 L613.726869,176.240343 L611.44368,173.584323 L607.884264,174.911536 L608.150344,177.779464 L613.196303,178.630282 L614.311608,181.498209 L618.984736,184.206807 L626.9512,195.783673 L630.137786,199.236339 L632.793805,201.5737 L629.871706,203.909467 L630.827682,205.980748 L630.775103,208.636767 L628.651244,216.709983 L634.758336,220.267806 L636.499805,221.92961 Z M645.331427,160.116218 L648.828705,159.392863 L650.033235,161.803516 L643.282453,167.470858 L641.714652,166.626413 L643.042025,161.803516 L645.331427,160.116218 Z M654.977223,161.322341 L659.075172,162.888548 L656.302842,164.696935 L652.926655,163.973581 L654.977223,161.322341 Z M646.53755,224.252631 L649.792648,225.216573 L652.807158,226.422696 L649.431129,230.641736 L646.175873,227.628819 L646.53755,224.252631 Z M622.185821,249.810643 L625.560256,252.584566 L625.802436,259.214258 L622.426248,259.697025 L618.930564,251.980708 L622.185821,249.810643 Z M633.39623,249.691146 L633.878838,248.244436 L632.311038,242.336506 L640.389033,239.443086 L640.991297,247.761668 L635.927972,253.910185 L630.864328,254.271863 L631.468186,250.533998 L633.39623,249.691146 Z M644.367485,240.768705 L642.799685,237.513608 L646.175873,234.862369 L649.431129,236.428576 L650.394912,238.840821 L647.139815,239.804763 L643.884717,253.789095 L649.069293,253.669598 L648.828705,255.597483 L644.729163,255.95916 L642.31851,260.058703 L639.665837,261.86709 L637.85729,260.179793 L641.233478,254.754631 L644.367485,240.768705 Z M732.86694,27.3566799 L735.709374,26.8834719 L736.341912,29.4104345 L736.657384,33.8334156 L732.234403,39.5214713 L731.286553,39.04667 L734.130421,33.8334156 L732.709204,32.2544623 L732.86694,27.3566799 Z M708.381214,26.251572 L706.642932,23.0920721 L710.434969,24.8297174 L708.381214,26.251572 Z M738.23793,25.303722 L740.922788,24.987772 L741.239694,27.9892172 L738.868874,27.9892172 L738.23793,25.303722 Z M705.063979,43.7867164 L705.854252,47.2616883 L708.854582,51.3691974 L706.800668,54.2116319 L704.589177,52.4749427 L705.221715,49.3154428 L702.852488,45.5234057 L705.063979,43.7867164 Z M701.746743,66.8496313 L704.115969,66.8496313 L704.115969,70.9571404 L701.746743,69.6936591 L701.746743,66.8496313 Z M699.535252,77.2761401 L703.010224,77.1184041 L702.535423,79.1721587 L700.323932,79.1721587 L699.535252,77.2761401 Z M700.323932,82.4893945 L702.535423,82.8048665 L701.589007,84.5431491 L699.692988,84.3854131 L700.323932,82.4893945 Z M621.498952,139.519721 L623.552707,141.635614 L619.258782,143.440815 L615.64838,146.802663 L614.464564,146.179685 L616.768465,140.827814 L621.498952,139.519721 Z M624.486376,141.200645 L622.432622,138.772467 L627.598077,136.470158 L631.893595,136.470158 L633.388104,140.577667 L631.208479,140.701944 L629.901979,138.64819 L624.486376,141.200645 Z M587.815147,267.003867 L589.287349,268.128731 L589.201311,274.793476 L587.209695,279.72631 L585.911162,275.91834 L587.815147,267.003867 Z M602.529207,280.851175 L603.480402,283.448243 L601.662455,285.092521 L600.365515,283.014867 L602.529207,280.851175 Z M598.373899,287.861664 L600.711259,287.342251 L600.277884,289.160198 L599.066981,289.246236 L598.373899,287.861664 Z M596.557545,288.986529 L595.518718,291.150221 L594.565929,291.495965 L595.172973,289.246236 L596.557545,288.986529 Z M589.11368,294.698484 L595.604756,295.13186 L593.786808,297.121882 L589.027643,295.909387 L589.11368,294.698484 Z M659.242468,254.576182 L662.747712,256.966121 L664.659664,257.922097 L664.659664,261.108683 L658.605151,256.647463 L659.242468,254.576182 Z M667.846249,264.773256 L669.91753,266.047891 L671.670152,270.509111 L670.236189,271.465087 L667.846249,264.773256 Z M492.265371,211.238615 L494.336652,209.804651 L494.65531,215.859164 L491.946712,216.018493 L492.265371,211.238615 Z M489.556773,209.485992 L490.831407,218.727091 L490.034761,225.259592 L485.573541,225.100263 L484.776894,217.771116 L487.485492,210.760627 L489.556773,209.485992 Z M490.19409,204.546784 L486.051528,207.096053 L483.661589,213.947213 L479.997015,215.699835 L477.288417,219.04575 L457.372256,226.534227 L455.619634,228.286849 L453.389024,227.649532 L454.345,223.188312 L452.114389,214.425201 L440.164693,209.326663 L436.34079,212.35392 L428.692984,210.919956 L430.764264,208.052029 L427.577679,204.228126 L425.825056,205.024772 L425.665727,212.035261 L422.957129,205.343431 L419.611214,201.838187 L417.858592,201.519528 L414.034689,193.553063 L413.556701,194.987027 L414.672006,204.068797 L413.397372,205.184102 L405.908895,212.19459 L399.217065,207.73337 L388.382673,214.58453 L385.992734,212.672578 L388.701332,201.360199 L385.833404,198.492271 L382.168831,203.909467 L378.822916,198.970259 L369.422487,202.634833 L364.164621,200.085564 L360.500047,201.678857 L359.225413,197.536296 L354.286205,197.854954 L352.852241,200.404223 L347.435045,176.982817 L343.451813,173.636902 L346.797728,170.609645 L346.47907,161.846534 L343.611142,158.659949 L340.583886,155.154704 L329.112177,153.402082 L328.793518,148.462874 L332.617421,147.984886 L332.298763,145.435618 L325.766262,145.116959 L325.925591,139.221775 L327.518884,129.662018 L323.694981,125.041468 L320.986383,124.244822 L320.986383,117.552992 L319.233761,115.322382 L319.233761,111.498479 L321.942359,108.789881 L319.871078,104.010002 L323.057664,102.25738 L323.376322,96.8401837 L328.156201,94.1315858 L330.386811,87.2804263 L334.210714,85.8464627 L336.122666,84.0938405 L338.289544,84.1480124 L335.201742,86.8295244 L335.958556,89.6257534 L338.173234,89.6847053 L337.765351,95.5703293 L352.336014,106.119522 L352.860208,108.742082 L360.085791,111.947787 L365.273553,110.432566 L373.373854,105.886901 L381.008913,109.790469 L383.456211,107.692102 L386.778227,108.509461 L390.508126,107.810005 L391.14863,105.479018 L394.704859,105.479018 L398.667379,97.7276479 L403.912499,94.7545633 L415.451126,95.5703293 L416.908989,98.8349865 L423.844593,100.874401 L431.537012,101.631216 L438.472616,97.7850064 L441.327796,97.9013168 L448.612332,96.5024056 L451.701727,97.6097442 L454.673218,93.3556522 L454.615859,89.8599675 L458.462068,87.2947659 L458.462068,85.3143028 L456.363702,81.8743834 L457.063157,79.8349685 L460.909366,78.6113196 L462.016705,76.4555943 L467.086563,73.0172682 L464.755575,71.0941636 L463.823499,65.4411604 L467.494446,61.4770476 L470.059648,62.9922692 L474.662671,61.185475 L473.614284,56.3482377 L476.412106,52.5020286 L474.780574,45.7416868 L476.412106,39.7397524 L478.859404,33.8525351 L480.723557,33.1530795 L481.889847,31.0563061 L485.736056,31.5215476 L489.990149,29.4231808 L492.55535,29.5410845 L494.244241,31.7557617 L498.265712,30.0652779 L507.591255,30.6484231 L515.634198,30.6484231 L518.138854,34.3783218 L526.065487,34.9598737 L525.541293,37.1745508 L520.061959,39.3318694 L523.326616,42.8275541 L525.190769,44.7506586 L524.026072,47.4911224 L523.326616,50.8131382 L518.780951,49.1800129 L516.274702,49.6468477 L515.224722,51.3373315 L517.789923,53.9009398 L515.575246,57.0476933 L518.022544,59.9044675 L521.985063,66.3142849 L526.940204,70.8599496 L529.271192,74.8814209 L526.70599,79.0781544 L524.725527,81.0012589 L526.006535,83.4485568 L529.620123,88.8689393 L534.108429,92.4825276 L540.053005,98.5434139 L541.741896,100.115994 L546.28756,101.690167 L548.036996,105.012183 L551.067439,107.22686 L552.58266,108.450509 L548.852762,113.463009 L546.28756,111.713573 L541.276654,113.404057 L536.323106,112.35567 L531.251655,108.858392 L530.843772,106.06057 L527.929639,105.827949 L528.104902,107.575791 L530.086958,109.965731 L528.746999,113.752988 L524.782886,115.386113 L520.879318,123.545366 L517.965185,131.703026 L518.722,134.735062 L517.673613,138.114437 L518.022544,143.067984 L515.516294,148.663629 L512.661113,152.509838 L506.949158,158.978607 L504.50186,160.669091 L502.170873,157.696006 L502.229825,161.193284 L501.355107,163.524272 L498.149402,164.864231 L495.934724,169.352537 L491.040129,171.159332 L490.456983,173.082436 L495.002648,173.374009 L494.478455,179.318585 L493.371116,180.542233 L497.508898,182.057455 L497.741519,186.078926 L493.778999,190.857212 L493.487426,194.411848 L492.43904,200.939569 L489.990149,200.939569 L488.067044,197.267029 L487.367588,199.016465 L487.659161,201.639025 L489.524907,203.737392 L490.19409,204.546784 Z M530.405616,76.5527851 L532.22675,77.9198304 L531.012661,79.8939204 L528.582889,79.2852825 L530.405616,76.5527851 Z M340.481915,157.092148 L340.139357,159.257433 L334.443335,162.845529 L332.335408,159.883598 L334.613817,155.838227 L339.568958,155.838227 L340.481915,157.092148 Z M319.460008,166.6057 L321.682652,167.744905 L318.548645,170.934677 L317.181599,170.821553 L319.460008,166.6057 Z M324.587225,163.016011 L324.872424,160.624479 L328.46052,159.142716 L328.46052,160.05408 L325.898505,162.104648 L324.587225,163.016011 Z M329.999641,166.263142 L330.796287,165.807461 L330.340606,170.934677 L329.25876,170.821553 L329.999641,166.263142 Z M302.567917,43.9763183 L300.345273,41.7520814 L298.939989,39.6457482 L299.993156,36.8367728 L304.67425,35.4330817 L305.961631,38.4762712 L309.00482,42.5726272 L305.611106,44.2105323 L304.67425,46.7852937 L302.685821,47.2537218 L301.39844,45.263699 L302.567917,43.9763183 Z M255.637474,63.9896705 L257.159069,63.5212424 L258.564353,68.5528614 L258.095925,69.7239317 L255.637474,63.9896705 Z M245.924761,60.478053 L248.147404,60.2438389 L248.615832,63.0528143 L247.212141,65.3933616 L245.924761,63.8717668 L245.924761,60.478053 Z M261.489639,53.222197 L262.308592,56.1474828 L262.542806,60.9464811 L259.383306,57.4348635 L258.212236,54.391674 C258.212236,54.391674 260.786997,53.222197 261.489639,53.222197 Z M293.205728,61.0627914 L295.664179,61.6491232 L293.90837,63.2870284 L292.268872,62.5843862 L293.205728,61.0627914 Z M319.421769,61.881744 L320.591246,63.170718 L318.134389,65.0428371 L317.313843,64.2238846 L319.421769,61.881744 Z M326.793936,68.9049792 L327.847102,70.0744561 L327.02815,71.4797405 L326.443411,74.1708122 L324.687602,73.8202878 L322.69758,75.5760966 L321.878627,73.7023841 L323.283911,72.6492175 L326.793936,68.9049792 Z M308.88851,75.8103106 L316.144366,73.9365982 L315.559627,75.3418825 L308.770606,76.7455736 L308.88851,75.8103106 Z M297.18418,108.461662 C297.536298,108.461662 303.973201,112.207494 303.973201,112.207494 L301.632654,113.729089 L294.609419,108.812187 L297.18418,108.461662 Z M279.278754,104.48321 L275.650826,101.322117 L277.875063,98.9815694 L280.682446,103.430043 L279.278754,104.48321 Z M268.511281,94.3004748 L270.150779,95.2373311 L267.692328,96.9931399 L266.639162,96.6410221 L268.511281,94.3004748 Z M256.340116,116.069636 L255.871688,113.376971 L259.149092,110.451685 L259.73383,112.207494 L256.340116,116.069636 Z M287.003038,111.154327 L291.099395,114.430137 L295.780489,114.430137 L295.546275,116.302257 L290.046228,116.42016 L285.831968,111.504852 L287.003038,111.154327 Z M192.323201,109.046401 L194.079009,107.75902 L195.599011,113.494875 L193.492678,113.961709 L192.323201,109.046401 Z M213.856554,104.921365 L218.187124,105.302162 L224.039289,107.64271 L223.570861,111.386948 L225.092456,113.026446 L220.293458,115.601208 L219.123981,112.08959 L215.846577,107.876924 L211.868125,108.461662 L210.814958,104.59952 L213.856554,104.921365 Z M208.238603,104.717424 L208.356507,109.164304 L204.962793,110.217471 L203.909627,107.64271 L208.238603,104.717424 Z M825.798935,133.75678 L828.289252,132.31485 L840.348886,136.114854 L836.547289,140.440644 L832.615042,138.868064 L829.863426,138.213221 L825.798935,133.75678 Z M821.081195,134.411624 L823.832812,136.508397 L822.129582,137.950327 L819.245881,135.460011 L821.081195,134.411624 Z"></path>
            </g>
        </g>
    </g>
</svg>